{
	"info": {
		"_postman_id": "83a37e49-132f-443b-8a98-db8fc01b0122",
		"name": "kotuko",
		"schema": "https://schema.getpostman.com/json/collection/v2.1.0/collection.json",
		"_exporter_id": "4517892"
	},
	"item": [
		{
			"name": "Add user",
			"request": {
				"method": "POST",
				"header": [],
				"body": {
					"mode": "raw",
					"raw": "{\r\n    \"username\": \"sumin\",\r\n    \"firstName\": \"sumin\",\r\n    \"lastName\": \"shakya\",\r\n    \"email\": \"summin.shakay@gmail.com\",\r\n    \"dateOfBirth\": \"2022-01-06\"\r\n}",
					"options": {
						"raw": {
							"language": "json"
						}
					}
				},
				"url": {
					"raw": "{{url}}/users",
					"host": [
						"{{url}}"
					],
					"path": [
						"users"
					]
				}
			},
			"response": []
		},
		{
			"name": "Update User",
			"request": {
				"method": "PUT",
				"header": [],
				"body": {
					"mode": "raw",
					"raw": "{\r\n    \"username\": \"ram\",\r\n    \"firstName\": \"hari\",\r\n    \"lastName\": \"sari\",\r\n    \"email\": \"hari.sari@gmail.com\",\r\n    \"dateOfBirth\": \"2022-01-24\"\r\n}",
					"options": {
						"raw": {
							"language": "json"
						}
					}
				},
				"url": {
					"raw": "{{url}}/users/7",
					"host": [
						"{{url}}"
					],
					"path": [
						"users",
						"7"
					]
				}
			},
			"response": []
		},
		{
			"name": "Delete user",
			"request": {
				"method": "DELETE",
				"header": [],
				"url": {
					"raw": "{{url}}/users/7",
					"host": [
						"{{url}}"
					],
					"path": [
						"users",
						"7"
					]
				}
			},
			"response": []
		},
		{
			"name": "Retrieve by FirstName",
			"request": {
				"method": "GET",
				"header": [],
				"url": {
					"raw": "{{url}}/users/first-name/sumin?page=0&size=3",
					"host": [
						"{{url}}"
					],
					"path": [
						"users",
						"first-name",
						"sumin"
					],
					"query": [
						{
							"key": "page",
							"value": "0"
						},
						{
							"key": "size",
							"value": "3"
						}
					]
				}
			},
			"response": []
		},
		{
			"name": "Retrieve by Email",
			"request": {
				"method": "GET",
				"header": [],
				"url": {
					"raw": "{{url}}/users/email/lalim.shakay@gmail.com?page=0&size=1",
					"host": [
						"{{url}}"
					],
					"path": [
						"users",
						"email",
						"lalim.shakay@gmail.com"
					],
					"query": [
						{
							"key": "page",
							"value": "0"
						},
						{
							"key": "size",
							"value": "1"
						}
					]
				}
			},
			"response": []
		},
		{
			"name": "Retrieve by Last Name",
			"request": {
				"method": "GET",
				"header": [],
				"url": {
					"raw": "{{url}}/users/last-name/shakya",
					"host": [
						"{{url}}"
					],
					"path": [
						"users",
						"last-name",
						"shakya"
					]
				}
			},
			"response": []
		}
	]
}