{
	"id": "3cddde22-d304-4666-87f9-1f014097f45c",
	"name": "VPS",
	"values": [
		{
			"key": "url",
			"value": "http://localhost:8080/api",
			"enabled": true
		}
	],
	"_postman_variable_scope": "environment",
	"_postman_exported_at": "2024-05-24T12:16:38.816Z",
	"_postman_exported_using": "Postman/10.24.25"
}